[gd_scene load_steps=2 format=2]

[ext_resource path="res://Images/Box.png" type="Texture" id=1]

[node name="Box" type="RigidBody2D"]
mode = 1

[node name="Box" type="Sprite" parent="."]
texture = ExtResource( 1 )

[node name="CollisionPolygon2D" type="CollisionPolygon2D" parent="."]
polygon = PoolVector2Array( 51.9453, 64.6702, 62.6595, 49.5443, 62.6595, -50.6649, 46.2731, -65.1606, -50.1546, -63.9001, -65.2805, -47.5137, -63.3898, 46.393, -53.3058, 62.7794 )
