[gd_scene load_steps=4 format=2]

[ext_resource path="res://Images/trapezoid-rounded-png-4.png" type="Texture" id=1]
[ext_resource path="res://Sounds/Hit.ogg" type="AudioStream" id=2]
[ext_resource path="res://Obstacle.cs" type="Script" id=3]

[node name="Obstacle" type="StaticBody2D"]
script = ExtResource( 3 )

[node name="Sprite" type="Sprite" parent="."]
position = Vector2( 0, 0.949997 )
scale = Vector2( 0.2, 0.2 )
texture = ExtResource( 1 )

[node name="CollisionPolygon2D" type="CollisionPolygon2D" parent="."]
position = Vector2( 0.677811, 0.451874 )
polygon = PoolVector2Array( -42.0577, 27.8929, -0.711548, -42.8249, 41.3124, 28.1188 )

[node name="HitSoundPlayer" type="AudioStreamPlayer2D" parent="."]
stream = ExtResource( 2 )
volume_db = -15.0
pitch_scale = 0.5
max_distance = 1000.0
